<?xml version="1.0" encoding="UTF-8"?>
<svg width="115px" height="53px" viewBox="0 0 115 53" version="1.1" xmlns="http://www.w3.org/2000/svg" xmlns:xlink="http://www.w3.org/1999/xlink">
    <title>BS-logo-B</title>
    <g id="High-fidelity-wireframe" stroke="none" stroke-width="1" fill="none" fill-rule="evenodd">
        <g id="News-and-Events---1-post" transform="translate(-70.000000, -32.000000)">
            <g id="BS-logo-B" transform="translate(70.000000, 32.000000)">
                <path d="M38.0023116,27.9479154 L45.7297081,27.9479154 L45.0797272,30.8205092 C44.1138026,34.2413186 42.5466109,35.8112084 40.2459289,37.3963265 C38.1623712,38.8319312 35.1003625,39.1960238 31.3800219,39.1475704 L0,39.1475704 L1.43079316,32.3890147 L32.4336313,32.3890147 C32.4336313,32.3890147 34.6702894,32.3087205 36.1470127,31.365956 C37.1839202,30.7042211 37.3244943,30.2072278 37.7225554,29.1011061 C37.9549897,28.4573682 38.0023116,27.9479154 38.0023116,27.9479154" id="Fill-139" fill="#005479"></path>
                <path d="M0.225196822,24.6032471 L5.47932539,0 L13.2443011,0 L11.7828878,6.784859 L34.8384216,6.784859 C38.0577062,6.784859 43.2631209,6.91360658 45.8992321,10.3579504 C47.6111733,12.5937283 48.2514115,14.2397592 47.8770113,16.9725304 L47.5749859,18.5064263 L40.0090408,18.5078106 L40.1468312,17.8516133 C40.2929725,17.1677283 40.6868582,16.2194262 39.5887105,14.7173711 C38.7341317,13.7067719 37.9324422,13.5461835 36.1147225,13.504652 L10.2978136,13.5032676 L7.97347066,24.6032471 L0.225196822,24.6032471 Z" id="Fill-141" fill="#005479"></path>
                <path d="M115,24.6032471 L107.301832,24.6032471 L107.041561,25.8201194 C106.569733,27.8648525 106.278842,29.8417508 105.084659,30.9008034 C103.767995,32.0692223 102.124253,32.3890147 100.86883,32.3890147 L72.46174,32.3890147 L71.0239878,39.1226515 L101.702531,39.1226515 C105.303175,39.0714294 107.86552,38.3626255 110.624111,35.9081152 C113.506575,33.3414699 113.847571,29.980189 114.588021,26.5150794 C114.74808,25.7661285 115,24.6032471 115,24.6032471" id="Fill-143" fill="#005479"></path>
                <path d="M78.9395586,21.0153428 L79.5380421,18.2230431 C79.8706876,16.5465558 80.446902,15.5110377 81.4420548,14.7011739 C82.4608686,13.8719287 83.89027,13.5050673 85.5200937,13.5050673 L113.558351,13.5050673 L114.991927,6.78527431 L84.0419786,6.79081184 C80.8574895,6.88633424 77.6785678,7.71281064 75.6075364,9.7893845 C73.0618937,12.0431593 72.5622296,14.3744596 71.9011141,17.6817496 L71.1843257,21.0153428 L78.9395586,21.0153428 Z" id="Fill-145" fill="#005479"></path>
                <path d="M60.8852594,24.6053237 L12.5973822,24.6053237 L12.5973822,24.5111857 C20.494581,24.2841469 27.3117258,24.2149278 39.5388833,22.645038 C45.6267133,21.8642462 49.6796994,20.3414254 53.8008847,18.0945724 C55.8287696,16.9898351 58.885211,14.7526729 60.4148235,13.1370984 C64.2826972,9.05455423 65.0147957,4.70897733 65.0147957,4.70897733 L65.1066559,4.70897733 L60.8852594,24.6053237 Z" id="Fill-147" fill="#FF3233"></path>
                <path d="M60.8852594,24.6053237 C60.8852594,24.6053237 63.8748933,24.6053237 102.619046,24.6053237 L102.619046,24.6994617 C90.5491646,25.4401064 84.489171,25.7142141 78.3331417,26.9504678 C73.8751354,27.7561784 70.2995443,29.1391766 66.8881883,31.0966936 C64.5374007,32.4450822 62.3466726,34.257239 61.0536699,35.5433304 C58.0612523,38.5391343 57.4878216,41.0670169 57.4878216,41.0670169 L57.3917858,41.0670169 L60.8852594,24.6053237 Z" id="Fill-149" fill="#FF3233"></path>
                <path d="M73.0499241,50.4456551 C73.5774246,50.4456551 74.1397208,50.5951684 74.0269832,51.2070655 C73.8766664,52.019698 72.8063552,51.9490945 72.8063552,51.9490945 L67.9655978,51.9490945 L67.7415144,52.9846551 L72.557219,52.9846551 C73.6845949,52.9887658 75.084768,52.6897392 75.2865822,51.1807622 C75.4174135,50.2047725 74.8217136,49.3838336 73.3519495,49.4087525 L70.4722695,49.4087525 C70.1270976,49.4087525 69.7318201,49.1941732 69.7833175,48.7137925 C69.8584759,48.0119105 70.6114517,48.0285231 70.8146577,48.0285231 L75.6860352,48.0285231 L75.9198613,46.9943893 L70.8814652,46.9943893 C69.6274334,46.9957737 68.7909483,47.5273766 68.6267133,48.607195 C68.504233,49.4184432 68.8535803,50.387511 70.1354485,50.4456551 L73.0499241,50.4456551 Z" id="Fill-151" fill="#005479"></path>
                <path d="M30.0792249,52.9848896 L31.3972805,52.9848896 L32.4369716,48.0274156 L36.1461776,48.0274156 C36.5999116,48.0274156 36.7042983,48.1478569 36.8045095,48.2779888 C36.9130716,48.4191958 36.9450835,48.553481 36.8782761,48.8303575 L35.9875099,52.9848896 L37.277729,52.9848896 L38.1392669,48.9535675 C38.2283436,48.5700935 38.295151,48.122938 37.9973011,47.6591698 C37.6451701,47.1081856 37.0856576,46.9946662 36.4231502,46.9946662 L32.6540959,46.9946662 L33.0201451,45.2877225 L31.7229669,45.2877225 L30.0792249,52.9848896 Z" id="Fill-153" fill="#005479"></path>
                <path d="M27.6349069,52.9848896 L27.8562066,51.9493714 L22.7217748,51.9493714 C22.5742416,51.9493714 22.4768141,51.9133775 22.4086148,51.8469271 C22.2889181,51.7292546 22.3585092,51.4911408 22.4016557,51.2876365 L22.9514254,48.7182225 C23.0029228,48.4773399 23.0446775,48.3084452 23.204737,48.1644695 C23.3898494,47.9969592 23.5638271,48.0274156 23.9312682,48.0274156 L28.6926917,48.0288 L28.9181669,47.0002037 L23.6793484,47.0002037 C23.2979891,47.0002037 22.8331205,47.0361977 22.4322758,47.2867709 C21.9284361,47.6010257 21.7822948,48.1755445 21.7168792,48.4593429 L21.0696819,51.4302279 C20.9819971,51.8330833 20.9764298,52.3245391 21.3285608,52.6747879 C21.640329,52.9835052 22.1900987,52.9848896 22.4113984,52.9848896 L27.6349069,52.9848896 Z" id="Fill-155" fill="#005479"></path>
                <path d="M94.8458587,51.9490945 L90.1067043,51.9532477 C89.84365,51.9490945 89.6766313,51.9089474 89.5318818,51.7705092 C89.3926996,51.6389928 89.4414134,51.3773445 89.5263145,50.9661829 L90.1554181,48.0271387 L93.8687996,48.0271387 L94.0900993,46.9957737 L90.3767178,46.9957737 L90.7497262,45.2874456 L89.4233197,45.2874456 L88.1539779,51.2153718 C88.0370648,51.766356 88.0161875,52.1622895 88.364143,52.5679135 C88.7107067,52.9680001 89.3147576,52.9846127 89.6571458,52.9846127 L94.6175999,52.9846127 L94.8458587,51.9490945 Z" id="Fill-157" fill="#005479"></path>
                <polygon id="Fill-159" fill="#005479" points="57.7741194 50.4464857 57.9982027 49.4040456 61.1632063 49.4095831 61.6767886 46.9952199 62.8723639 46.9952199 62.3532142 49.4081988 65.4778549 49.4040456 65.2551634 50.4464857 62.1346981 50.4451013 61.6002384 52.9854433 60.3879613 52.9854433 60.9419066 50.4451013"></polygon>
                <path d="M86.313989,46.9952199 L85.0223781,46.9952199 L84.1399628,51.2134336 C84.0564535,51.5221509 83.9854706,51.6259796 83.8114928,51.7561116 C83.6208132,51.8973186 83.395338,51.9485408 83.0752189,51.9485408 L79.6749974,51.9485408 C79.4871014,51.9485408 79.2463162,51.9014718 79.1669823,51.7644179 C79.0612039,51.5830638 79.0973912,51.4238598 79.1335786,51.2189712 L80.0243448,46.9952199 L78.7480439,46.9952199 L77.8711959,51.0971455 C77.7473238,51.6758174 77.7389728,52.0800571 78.0994548,52.5050626 C78.4376675,52.9051491 79.0138819,52.9854433 79.3562702,52.9854433 L83.0098033,52.9840589 C83.3591506,52.9840589 84.2513086,53.0255904 84.7732419,52.5479784 C85.2367187,52.1215886 85.3021343,51.7159645 85.4287901,51.1469833 L86.313989,46.9952199 Z" id="Fill-161" fill="#005479"></path>
                <path d="M104.301063,50.4456551 L99.7052665,50.4456551 L99.9279581,49.403215 L103.240495,49.403215 L103.410297,48.6127325 C103.446484,48.4452222 103.459011,48.3386248 103.372718,48.1988021 C103.283641,48.0589795 103.115231,48.0285231 102.878621,48.0312919 L99.4700486,48.0312919 C99.1151339,48.0188324 98.8325941,48.0728233 98.6474817,48.2154147 C98.4568021,48.3635437 98.37886,48.5961199 98.3357136,48.8245431 L97.8276985,51.2624408 C97.7942947,51.4202604 97.7497564,51.6016145 97.8332658,51.7566654 C97.9042487,51.8867973 98.089361,51.9574008 98.2716897,51.9490945 L103.553655,51.9490945 L103.33653,52.9846127 L97.8750204,52.9874021 C97.5688196,52.9887658 97.0023479,52.9209311 96.7504281,52.6689735 C96.4108235,52.3311841 96.3662852,51.9449414 96.5082511,51.3192005 L97.0510617,48.7774741 C97.1888521,48.1323518 97.3155079,47.6713524 97.808213,47.3418693 C98.2396778,47.0539178 98.7031546,46.9943893 99.1847251,46.9971581 L103.134716,46.9943893 C103.525818,46.9943893 104.192501,46.9431671 104.55855,47.4553887 C104.802119,47.7973312 104.799336,48.1323518 104.707475,48.5698167 L104.301063,50.4456551 Z" id="Fill-163" fill="#005479"></path>
                <path d="M48.1404833,50.4582529 L43.5446866,50.4582529 L43.7673781,49.4171972 L47.0743475,49.4158129 L47.2497171,48.6253304 C47.2859045,48.4578201 47.2984309,48.352607 47.2121379,48.2127844 C47.1230613,48.0715774 46.9518672,48.0258928 46.7152574,48.0272771 L43.3094686,48.0272771 C42.954554,48.0162021 42.6720141,48.0854212 42.4869017,48.2280126 C42.2962221,48.3761415 42.2182801,48.6087178 42.1751336,48.8371409 L41.6671185,51.2750387 C41.6337148,51.4328583 41.5891765,51.6142124 41.6726858,51.7692632 C41.7436687,51.8993952 41.9287811,51.9699987 42.1111098,51.9616924 L47.3930748,51.9616924 L47.1759505,52.9972106 L41.7144405,53 C41.4082396,53.0013637 40.841768,52.933529 40.5898482,52.6815714 C40.2488517,52.343782 40.2057053,51.9575393 40.3476711,51.3317983 L40.8904818,48.7900719 C41.0282721,48.1449497 41.154928,47.6839503 41.647633,47.3544672 C42.0790979,47.0651313 42.5439665,46.991759 43.0255369,46.9959121 L46.9755281,46.9959121 C47.368022,46.9959121 48.0319211,46.955765 48.3979704,47.469371 C48.6429311,47.8113135 48.6387556,48.1449497 48.5468953,48.5824146 L48.1404833,50.4582529 Z" id="Fill-165" fill="#005479"></path>
                <path d="M1.66448009,51.9490945 L3.08692232,45.2874456 L1.80644595,45.2874456 L0.162704008,52.9846127 L5.9025785,52.9846127 C6.71261899,52.9846127 7.16356936,52.8904747 7.51570036,52.562376 C7.73560826,52.356103 7.92489607,52.0293887 8.0404173,51.4341042 L8.59714616,48.8286962 C8.74467931,48.0797452 8.56652607,47.6381272 8.22692147,47.3211036 C7.9207206,47.0373052 7.28604971,46.9957737 6.96453879,46.9957737 L3.84546538,46.9957737 L3.60885562,48.0271387 L6.64720335,48.0271387 C6.76690005,48.0271387 7.11068012,48.0243699 7.25682144,48.1960334 C7.44610925,48.4175346 7.34450624,48.6113481 7.32641255,48.7691678 L6.76690005,51.3870352 C6.73906361,51.5240891 6.71401081,51.6320709 6.5121966,51.7981968 C6.30759874,51.9657071 5.7954082,51.9560164 5.7954082,51.9560164 L1.66448009,51.9490945 Z" id="Fill-167" fill="#005479"></path>
                <path d="M19.3062432,46.9952199 L18.0021059,46.9952199 L17.1196907,51.2134336 C17.0333977,51.5747575 16.976333,51.5913701 16.7828697,51.7436522 C16.5754882,51.9083937 16.4015104,51.9610002 16.1328888,51.9485408 L12.5739996,51.9485408 C12.3861036,51.9485408 12.2149094,51.8682466 12.1467102,51.7658023 C12.0799027,51.6661267 12.046499,51.5636824 12.1063473,51.2840371 L13.0263417,46.9896824 L11.7194208,46.9896824 L10.8467483,51.055614 C10.7228761,51.6301328 10.7047824,52.0703664 11.0791826,52.5050626 C11.420179,52.9023804 11.9936097,52.9854433 12.335998,52.9854433 L16.2748546,52.9854433 C16.624202,52.9854433 17.3479495,52.9563713 17.8128181,52.5396721 C18.259593,52.1395856 18.2929967,51.6979675 18.4210444,51.1276019 L19.3062432,46.9952199 Z" id="Fill-169" fill="#005479"></path>
                <path d="M56.581467,48.0276925 L53.4832709,48.0276925 C53.1478418,48.0346144 53.0573733,48.0678396 52.8639101,48.2325811 C52.6815814,48.3876319 52.6147739,48.5634485 52.5660601,48.7697215 L51.6599839,52.9851665 L50.3697648,52.9851665 L51.3426485,48.4333166 C51.424766,48.0346144 51.5945683,47.6345278 51.9870621,47.3216573 C52.472808,46.9354146 53.2021228,46.9949431 53.5445111,46.9949431 L56.8055503,46.9949431 L56.581467,48.0276925 Z" id="Fill-171" fill="#005479"></path>
                <path d="M112.748032,48.031015 L109.649836,48.031015 C109.413226,48.0365525 109.1794,48.1043873 109.015165,48.2455943 C108.832836,48.4006451 108.786906,48.5418521 108.732625,48.7716597 L107.826549,52.988489 L106.522411,52.9843358 L107.454932,48.6249151 C107.555143,48.1583782 107.669273,47.6738443 108.138317,47.3277486 C108.646332,46.9525809 109.368688,46.9982656 109.711076,46.9982656 L112.972115,46.9982656 L112.748032,48.031015 Z" id="Fill-173" fill="#005479"></path>
            </g>
        </g>
    </g>
</svg>