{
    "key": "group_63467e75bc1f1",
    "title": "Block: Gallery",
    "fields": [
        {
            "key": "field_63467e763e0bf",
            "label": "Gallery",
            "name": "",
            "type": "tab",
            "instructions": "",
            "required": 0,
            "conditional_logic": 0,
            "wrapper": {
                "width": "",
                "class": "",
                "id": ""
            },
            "wpml_cf_preferences": 3,
            "placement": "top",
            "endpoint": 0
        },
        {
            "key": "field_63467e7641b27",
            "label": "Gallery Title",
            "name": "gallery_title",
            "type": "text",
            "instructions": "",
            "required": 0,
            "conditional_logic": 0,
            "wrapper": {
                "width": "",
                "class": "",
                "id": ""
            },
            "wpml_cf_preferences": 2,
            "default_value": "",
            "maxlength": "",
            "placeholder": "Shop",
            "prepend": "",
            "append": ""
        },
        {
            "key": "field_634680e5477ee",
            "label": "Gallery Text",
            "name": "gallery_text",
            "type": "textarea",
            "instructions": "",
            "required": 0,
            "conditional_logic": 0,
            "wrapper": {
                "width": "",
                "class": "",
                "id": ""
            },
            "wpml_cf_preferences": 2,
            "default_value": "",
            "maxlength": "",
            "rows": 3,
            "placeholder": "Lorem ipsum dolor sit amet, consetetur sadipscing elir....",
            "new_lines": ""
        },
        {
            "key": "field_63467e7662aa4",
            "label": "Galleries",
            "name": "galleries",
            "type": "repeater",
            "instructions": "",
            "required": 0,
            "conditional_logic": 0,
            "wrapper": {
                "width": "",
                "class": "",
                "id": ""
            },
            "wpml_cf_preferences": 3,
            "layout": "block",
            "pagination": 0,
            "min": 1,
            "max": 0,
            "collapsed": "",
            "button_label": "Add Category",
            "rows_per_page": 20,
            "sub_fields": [
                {
                    "key": "field_63468161477ef",
                    "label": "Gallery Items",
                    "name": "gallery_items",
                    "type": "group",
                    "instructions": "",
                    "required": 0,
                    "conditional_logic": 0,
                    "wrapper": {
                        "width": "",
                        "class": "",
                        "id": ""
                    },
                    "wpml_cf_preferences": 3,
                    "layout": "block",
                    "sub_fields": [
                        {
                            "key": "field_63468174477f0",
                            "label": "Gallery Category Title",
                            "name": "gallery_category_title",
                            "type": "text",
                            "instructions": "",
                            "required": 0,
                            "conditional_logic": 0,
                            "wrapper": {
                                "width": "",
                                "class": "",
                                "id": ""
                            },
                            "wpml_cf_preferences": 2,
                            "default_value": "",
                            "maxlength": "",
                            "placeholder": "",
                            "prepend": "",
                            "append": ""
                        },
                        {
                            "key": "field_634681ac477f1",
                            "label": "Gallery Products",
                            "name": "gallery_products",
                            "type": "repeater",
                            "instructions": "",
                            "required": 0,
                            "conditional_logic": 0,
                            "wrapper": {
                                "width": "",
                                "class": "",
                                "id": ""
                            },
                            "wpml_cf_preferences": 3,
                            "layout": "block",
                            "pagination": 0,
                            "min": 0,
                            "max": 0,
                            "collapsed": "",
                            "button_label": "Add Product",
                            "rows_per_page": 20,
                            "sub_fields": [
                                {
                                    "key": "field_634681c0477f2",
                                    "label": "Gallery Product Image",
                                    "name": "gallery_product_image",
                                    "type": "image",
                                    "instructions": "",
                                    "required": 0,
                                    "conditional_logic": 0,
                                    "wrapper": {
                                        "width": "",
                                        "class": "",
                                        "id": ""
                                    },
                                    "wpml_cf_preferences": 2,
                                    "return_format": "url",
                                    "library": "all",
                                    "min_width": "",
                                    "min_height": "",
                                    "min_size": "",
                                    "max_width": "",
                                    "max_height": "",
                                    "max_size": "",
                                    "mime_types": "",
                                    "preview_size": "management",
                                    "parent_repeater": "field_634681ac477f1"
                                },
                                {
                                    "key": "field_6346830f477f3",
                                    "label": "Gallery Product Title",
                                    "name": "gallery_product_title",
                                    "type": "text",
                                    "instructions": "",
                                    "required": 0,
                                    "conditional_logic": 0,
                                    "wrapper": {
                                        "width": "",
                                        "class": "",
                                        "id": ""
                                    },
                                    "wpml_cf_preferences": 2,
                                    "default_value": "",
                                    "maxlength": "",
                                    "placeholder": "",
                                    "prepend": "",
                                    "append": "",
                                    "parent_repeater": "field_634681ac477f1"
                                },
                                {
                                    "key": "field_63468334477f5",
                                    "label": "Gallery Product Short Description",
                                    "name": "gallery_product_short_description",
                                    "type": "textarea",
                                    "instructions": "",
                                    "required": 0,
                                    "conditional_logic": 0,
                                    "wrapper": {
                                        "width": "",
                                        "class": "",
                                        "id": ""
                                    },
                                    "wpml_cf_preferences": 2,
                                    "default_value": "",
                                    "maxlength": "",
                                    "rows": 2,
                                    "placeholder": "",
                                    "new_lines": "br",
                                    "parent_repeater": "field_634681ac477f1"
                                },
                                {
                                    "key": "field_6346837d477f7",
                                    "label": "Gallery Product Full Description",
                                    "name": "gallery_product_full_description",
                                    "type": "textarea",
                                    "instructions": "",
                                    "required": 0,
                                    "conditional_logic": 0,
                                    "wrapper": {
                                        "width": "",
                                        "class": "",
                                        "id": ""
                                    },
                                    "wpml_cf_preferences": 2,
                                    "default_value": "",
                                    "maxlength": "",
                                    "rows": 4,
                                    "placeholder": "",
                                    "new_lines": "br",
                                    "parent_repeater": "field_634681ac477f1"
                                },
                                {
                                    "key": "field_634683c3477f8",
                                    "label": "Gallery Product Serial Number",
                                    "name": "gallery_product_serial_number",
                                    "type": "text",
                                    "instructions": "",
                                    "required": 0,
                                    "conditional_logic": 0,
                                    "wrapper": {
                                        "width": "",
                                        "class": "",
                                        "id": ""
                                    },
                                    "wpml_cf_preferences": 2,
                                    "default_value": "",
                                    "maxlength": "",
                                    "placeholder": "",
                                    "prepend": "",
                                    "append": "",
                                    "parent_repeater": "field_634681ac477f1"
                                },
                                {
                                    "key": "field_634683f4477f9",
                                    "label": "Gallery Product Link",
                                    "name": "gallery_product_link",
                                    "type": "link",
                                    "instructions": "",
                                    "required": 0,
                                    "conditional_logic": 0,
                                    "wrapper": {
                                        "width": "",
                                        "class": "",
                                        "id": ""
                                    },
                                    "wpml_cf_preferences": 2,
                                    "return_format": "array",
                                    "parent_repeater": "field_634681ac477f1"
                                }
                            ]
                        }
                    ],
                    "parent_repeater": "field_63467e7662aa4"
                }
            ]
        }
    ],
    "location": [
        [
            {
                "param": "block",
                "operator": "==",
                "value": "acf\/gallery"
            }
        ]
    ],
    "menu_order": 0,
    "position": "normal",
    "style": "default",
    "label_placement": "top",
    "instruction_placement": "label",
    "hide_on_screen": "",
    "active": true,
    "description": "",
    "show_in_rest": 0,
    "modified": 1665575206
}